<svg width="127.1" height="20" viewBox="0 0 1271 200" xmlns="http://www.w3.org/2000/svg" role="img" aria-label="Commits/Year: 1011">
  <title>Commits/Year: 1011</title>
  <linearGradient id="aUPdi" x2="0" y2="100%">
    <stop offset="0" stop-opacity=".1" stop-color="#EEE"/>
    <stop offset="1" stop-opacity=".1"/>
  </linearGradient>
  <mask id="WfAiQ"><rect width="1271" height="200" rx="30" fill="#FFF"/></mask>
  <g mask="url(#WfAiQ)">
    <rect width="891" height="200" fill="#555"/>
    <rect width="380" height="200" fill="#3C1" x="891"/>
    <rect width="1271" height="200" fill="url(#aUPdi)"/>
  </g>
  <g aria-hidden="true" fill="#fff" text-anchor="start" font-family="Verdana,DejaVu Sans,sans-serif" font-size="110">
    <text x="60" y="148" textLength="791" fill="#000" opacity="0.25">Commits/Year</text>
    <text x="50" y="138" textLength="791">Commits/Year</text>
    <text x="946" y="148" textLength="280" fill="#000" opacity="0.25">1011</text>
    <text x="936" y="138" textLength="280">1011</text>
  </g>
  
</svg>
