{
  "data": [
    {
      "category": "3.10",
      "date": "2024-09",
      "downloads": 216
    },
    {
      "category": "3.10",
      "date": "2024-10",
      "downloads": 241
    },
    {
      "category": "3.10",
      "date": "2024-11",
      "downloads": 242
    },
    {
      "category": "3.10",
      "date": "2024-12",
      "downloads": 252
    },
    {
      "category": "3.10",
      "date": "2025-01",
      "downloads": 248
    },
    {
      "category": "3.10",
      "date": "2025-02",
      "downloads": 217
    },
    {
      "category": "3.10",
      "date": "2025-03",
      "downloads": 57
    },
    {
      "category": "3.11",
      "date": "2024-09",
      "downloads": 216
    },
    {
      "category": "3.11",
      "date": "2024-10",
      "downloads": 240
    },
    {
      "category": "3.11",
      "date": "2024-11",
      "downloads": 240
    },
    {
      "category": "3.11",
      "date": "2024-12",
      "downloads": 252
    },
    {
      "category": "3.11",
      "date": "2025-01",
      "downloads": 248
    },
    {
      "category": "3.11",
      "date": "2025-02",
      "downloads": 216
    },
    {
      "category": "3.11",
      "date": "2025-03",
      "downloads": 56
    },
    {
      "category": "3.12",
      "date": "2024-09",
      "downloads": 216
    },
    {
      "category": "3.12",
      "date": "2024-10",
      "downloads": 238
    },
    {
      "category": "3.12",
      "date": "2024-11",
      "downloads": 240
    },
    {
      "category": "3.12",
      "date": "2024-12",
      "downloads": 250
    },
    {
      "category": "3.12",
      "date": "2025-01",
      "downloads": 250
    },
    {
      "category": "3.12",
      "date": "2025-02",
      "downloads": 216
    },
    {
      "category": "3.12",
      "date": "2025-03",
      "downloads": 56
    },
    {
      "category": "3.13",
      "date": "2025-01",
      "downloads": 2
    },
    {
      "category": "3.8",
      "date": "2024-09",
      "downloads": 216
    },
    {
      "category": "3.8",
      "date": "2024-10",
      "downloads": 248
    },
    {
      "category": "3.8",
      "date": "2024-11",
      "downloads": 241
    },
    {
      "category": "3.8",
      "date": "2024-12",
      "downloads": 252
    },
    {
      "category": "3.8",
      "date": "2025-01",
      "downloads": 248
    },
    {
      "category": "3.8",
      "date": "2025-02",
      "downloads": 216
    },
    {
      "category": "3.8",
      "date": "2025-03",
      "downloads": 56
    },
    {
      "category": "3.9",
      "date": "2024-10",
      "downloads": 4
    },
    {
      "category": "3.9",
      "date": "2025-03",
      "downloads": 1
    },
    {
      "category": "null",
      "date": "2024-09",
      "downloads": 119
    },
    {
      "category": "null",
      "date": "2024-10",
      "downloads": 281
    },
    {
      "category": "null",
      "date": "2024-11",
      "downloads": 110
    },
    {
      "category": "null",
      "date": "2024-12",
      "downloads": 85
    },
    {
      "category": "null",
      "date": "2025-01",
      "downloads": 173
    },
    {
      "category": "null",
      "date": "2025-02",
      "downloads": 148
    },
    {
      "category": "null",
      "date": "2025-03",
      "downloads": 38
    }
  ],
  "package": "kohtaaminen",
  "type": "python_minor_downloads"
}
